{
  "isAlert": false,
  "status": 200,
  "resultData": {
    "total": 2,
    "totalPage": 10,
    "hint": "",
    "limit": 1,
    "page": 1,
    "status": 200,
    "data": [
      {
        "id": "bd727fa4-7b3d-c547-89e8-26f74f593677",
        "c1": "送温暖",
        "c2": "2019年7月8日",
        "c3": "简自豪",
        "c4": "工会职工",
        "c5": "关爱老职工，送快乐"
      }
    ]
  }
}
