{
  "isAlert": false,
  "status": 200,
  "resultData": {
    "total": 2,
    "totalPage": 10,
    "hint": "",
    "limit": 1,
    "page": 1,
    "status": 200,
    "data": [
      {
        "id": "0d760b0b-9ba4-f241-4796-bd37d4fd4a4c",
        "c1": "认真学习党的十九大精神",
        "c2": "万豪社区党支部",
        "c3": "刘明",
        "c4": "2019年7月2日",
        "c5": "万豪党支部办公室",
        "c6": "面对面",
        "c7": "25",
        "c8": "23",
        "c9": "2",
        "c10": "已记录",
        "c11": "纸质记录"
      }
    ]
  }
}
