{
  "isAlert": false,
  "status": 200,
  "resultData": {
    "total": 2,
    "totalPage": 10,
    "hint": "",
    "limit": 1,
    "page": 1,
    "status": 200,
    "data": [
      {
        "id": "3050a0e8-82ec-1122-d0ce-7584d29b0ddc",
        "c1": "李新",
        "c2": "男",
        "c3": "汉族",
        "c4": "1995年8月1日",
        "c5": "群众",
        "c6": "未参加工作",
        "c7": "无",
        "c8": "正营子村",
        "c9": "",
        "c10": "急性淋巴细胞白血病",
        "c11": "举行募捐",
        "c12": "统一",
        "c13": "急性淋巴细胞白血病"
      }
    ]
  }
}
